lvl_1/lvl_2/lvl_3/NR_counter.vcd
$date
	Tue Oct 25 16:49:41 2022
$end
$version
	Icarus Verilog
$end
$timescale
	1ps
$end
$scope module NR_counter_TB $end
$var wire 1 ! clk $end
$var wire 1 " out $end
$var reg 1 # clear $end
$scope module clock_DUT $end
$var reg 1 $ i $end
$var reg 1 % out $end
$upscope $end
$scope module NR_counter_DUT $end
$var wire 1 & clear $end
$var wire 1 ! clock $end
$var reg 3 ' counter [2:0] $end
$var reg 1 ( out $end
$upscope $end
$upscope $end
$enddefinitions $end
#0
$dumpvars
0(
b1 '
0&
1%
0$
0#
0"
1!
$end
#5000000000
0%
0!
1$
#10000000000
b10 '
1%
1!
0$
#15000000000
0%
0!
1$
#20000000000
b11 '
1%
1!
0$
#25000000000
0%
0!
1$
#30000000000
1(
1"
b100 '
1%
1!
0$
#35000000000
0%
0!
1$
#40000000000
b101 '
1%
1!
0$
#45000000000
0%
0!
1$
#50000000000
0(
0"
b0 '
1%
1!
1#
1&
0$
#55000000000
0%
0!
1$
#60000000000
b1 '
1%
1!
0#
0&
0$
#65000000000
0%
0!
1$
#70000000000
b10 '
1%
1!
0$
#75000000000
0%
0!
1$
#80000000000
b11 '
1%
1!
0$
#85000000000
0%
0!
1$
#90000000000
1(
1"
b100 '
1%
1!
0$
#95000000000
0%
0!
1$
#100000000000
b101 '
1%
1!
0$
#105000000000
0%
0!
1$
#110000000000
b110 '
1%
1!
0$
#115000000000
0%
0!
1$
#120000000000
b111 '
1%
1!
0$
#125000000000
0%
0!
1$
#130000000000
b0 '
1%
1!
0$
#135000000000
0%
0!
1$
#140000000000
b1 '
1%
1!
0$
#145000000000
0%
0!
1$
#150000000000
b10 '
1%
1!
0$
#155000000000
0%
0!
1$
#160000000000
0(
0"
b0 '
1%
1!
1#
1&
0$
#165000000000
0%
0!
1$
#170000000000
b1 '
1%
1!
0#
0&
0$
#175000000000
0%
0!
1$
#180000000000
b10 '
1%
1!
0$
#185000000000
0%
0!
1$
#190000000000
b11 '
1%
1!
0$
#195000000000
0%
0!
1$
#200000000000
1(
1"
b100 '
1%
1!
0$
#205000000000
0%
0!
1$
#210000000000
b101 '
1%
1!
0$
#215000000000
0%
0!
1$
#220000000000
b110 '
1%
1!
0$
#225000000000
0%
0!
1$
#230000000000
b111 '
1%
1!
0$
#235000000000
0%
0!
1$
#240000000000
b0 '
1%
1!
0$
#245000000000
0%
0!
1$
#250000000000
b1 '
1%
1!
0$
#255000000000
0%
0!
1$
#260000000000
b10 '
1%
1!
0$
#265000000000
0%
0!
1$
#270000000000
b11 '
1%
1!
0$
#275000000000
0%
0!
1$
#280000000000
b100 '
1%
1!
0$
#285000000000
0%
0!
1$
#290000000000
b101 '
1%
1!
0$
#295000000000
0%
0!
1$
#300000000000
b110 '
1%
1!
0$
#305000000000
0%
0!
1$
#310000000000
b111 '
1%
1!
0$
#315000000000
0%
0!
1$
#320000000000
b0 '
1%
1!
0$
#325000000000
0%
0!
1$
#330000000000
b1 '
1%
1!
0$
#335000000000
0%
0!
1$
#340000000000
b10 '
1%
1!
0$
#345000000000
0%
0!
1$
#350000000000
b11 '
1%
1!
0$
#355000000000
0%
0!
1$
#360000000000
b100 '
1%
1!
0$
#365000000000
0%
0!
1$
#370000000000
b101 '
1%
1!
0$
#375000000000
0%
0!
1$
#380000000000
b110 '
1%
1!
0$
#385000000000
0%
0!
1$
#390000000000
b111 '
1%
1!
0$
#395000000000
0%
0!
1$
#400000000000
b0 '
1%
1!
0$
#405000000000
0%
0!
1$
#410000000000
b1 '
1%
1!
0$
#415000000000
0%
0!
1$
#420000000000
b10 '
1%
1!
0$
#425000000000
0%
0!
1$
#430000000000
b11 '
1%
1!
0$
#435000000000
0%
0!
1$
#440000000000
b100 '
1%
1!
0$
#445000000000
0%
0!
1$
#450000000000
b101 '
1%
1!
0$
#455000000000
0%
0!
1$
#460000000000
b110 '
1%
1!
0$
#465000000000
0%
0!
1$
#470000000000
b111 '
1%
1!
0$
#475000000000
0%
0!
1$
#480000000000
b0 '
1%
1!
0$
#485000000000
0%
0!
1$
#490000000000
b1 '
1%
1!
0$
#495000000000
0%
0!
1$
#500000000000
b10 '
1%
1!
0$
#505000000000
0%
0!
1$
#510000000000
b11 '
1%
1!
0$
#515000000000
0%
0!
1$
#520000000000
b100 '
1%
1!
0$
#525000000000
0%
0!
1$
#530000000000
b101 '
1%
1!
0$
#535000000000
0%
0!
1$
#540000000000
b110 '
1%
1!
0$
#545000000000
0%
0!
1$
#550000000000
b111 '
1%
1!
0$
#555000000000
0%
0!
1$
#560000000000
b0 '
1%
1!
0$
#565000000000
0%
0!
1$
#570000000000
b1 '
1%
1!
0$
#575000000000
0%
0!
1$
#580000000000
b10 '
1%
1!
0$
#585000000000
0%
0!
1$
#590000000000
b11 '
1%
1!
0$
#595000000000
0%
0!
1$
#600000000000
b100 '
1%
1!
0$
#605000000000
0%
0!
1$
#610000000000
b101 '
1%
1!
0$
#615000000000
0%
0!
1$
#620000000000
b110 '
1%
1!
0$
#625000000000
0%
0!
1$
#630000000000
b111 '
1%
1!
0$
#635000000000
0%
0!
1$
#640000000000
b0 '
1%
1!
0$
#645000000000
0%
0!
1$
#650000000000
b1 '
1%
1!
0$
#655000000000
0%
0!
1$
#660000000000
b10 '
1%
1!
0$
#665000000000
0%
0!
1$
#670000000000
0(
0"
b0 '
1%
1!
1#
1&
0$
#675000000000
0%
0!
1$
#680000000000
b1 '
1%
1!
0#
0&
0$
#685000000000
0%
0!
1$
#690000000000
b10 '
1%
1!
0$
